<svg width="13" height="10" viewBox="0 0 13 10" fill="none" xmlns="http://www.w3.org/2000/svg">
<path d="M1 5H11.6667" stroke="#3F3D56" stroke-linecap="round" stroke-linejoin="round"/>
<path d="M6.3335 1L11.6668 5L6.3335 9" stroke="#3F3D56" stroke-linecap="round" stroke-linejoin="round"/>
</svg>
