<svg width="20" height="16" viewBox="0 0 20 16" fill="none" xmlns="http://www.w3.org/2000/svg">
<path d="M17.8002 1.93335L7.0752 14.0667L2.2002 8.55153" stroke="#FFCC33" stroke-width="2.5" stroke-linecap="round" stroke-linejoin="round"/>
</svg>
